simulation/qsim/relogio.msim.vcd
$comment
	File created using the following command:
		vcd file relogio.msim.vcd -direction
$end
$date
	Tue Sep 16 21:26:32 2025
$end
$version
	ModelSim Version 10.1d
$end
$timescale
	1ps
$end
$scope module relogio_vlg_vec_tst $end
$var reg 1 ! clk $end
$var reg 1 " rst $end
$var wire 1 # bcd_h_dez [6] $end
$var wire 1 $ bcd_h_dez [5] $end
$var wire 1 % bcd_h_dez [4] $end
$var wire 1 & bcd_h_dez [3] $end
$var wire 1 ' bcd_h_dez [2] $end
$var wire 1 ( bcd_h_dez [1] $end
$var wire 1 ) bcd_h_dez [0] $end
$var wire 1 * bcd_h_unid [6] $end
$var wire 1 + bcd_h_unid [5] $end
$var wire 1 , bcd_h_unid [4] $end
$var wire 1 - bcd_h_unid [3] $end
$var wire 1 . bcd_h_unid [2] $end
$var wire 1 / bcd_h_unid [1] $end
$var wire 1 0 bcd_h_unid [0] $end
$var wire 1 1 bcd_m_dez [6] $end
$var wire 1 2 bcd_m_dez [5] $end
$var wire 1 3 bcd_m_dez [4] $end
$var wire 1 4 bcd_m_dez [3] $end
$var wire 1 5 bcd_m_dez [2] $end
$var wire 1 6 bcd_m_dez [1] $end
$var wire 1 7 bcd_m_dez [0] $end
$var wire 1 8 bcd_m_unid [6] $end
$var wire 1 9 bcd_m_unid [5] $end
$var wire 1 : bcd_m_unid [4] $end
$var wire 1 ; bcd_m_unid [3] $end
$var wire 1 < bcd_m_unid [2] $end
$var wire 1 = bcd_m_unid [1] $end
$var wire 1 > bcd_m_unid [0] $end
$var wire 1 ? bcd_s_dez [6] $end
$var wire 1 @ bcd_s_dez [5] $end
$var wire 1 A bcd_s_dez [4] $end
$var wire 1 B bcd_s_dez [3] $end
$var wire 1 C bcd_s_dez [2] $end
$var wire 1 D bcd_s_dez [1] $end
$var wire 1 E bcd_s_dez [0] $end
$var wire 1 F bcd_s_unid [6] $end
$var wire 1 G bcd_s_unid [5] $end
$var wire 1 H bcd_s_unid [4] $end
$var wire 1 I bcd_s_unid [3] $end
$var wire 1 J bcd_s_unid [2] $end
$var wire 1 K bcd_s_unid [1] $end
$var wire 1 L bcd_s_unid [0] $end
$var wire 1 M sampler $end
$scope module i1 $end
$var wire 1 N gnd $end
$var wire 1 O vcc $end
$var wire 1 P unknown $end
$var tri1 1 Q devclrn $end
$var tri1 1 R devpor $end
$var tri1 1 S devoe $end
$var wire 1 T horas|always0~1_combout $end
$var wire 1 U clk~combout $end
$var wire 1 V clk~clkctrl_outclk $end
$var wire 1 W segundos|bcd_s_lsd[0]~3_combout $end
$var wire 1 X rst~combout $end
$var wire 1 Y rst~clkctrl_outclk $end
$var wire 1 Z segundos|bcd_s_lsd~2_combout $end
$var wire 1 [ segundos|bcd_s_lsd~0_combout $end
$var wire 1 \ segundos|bcd_s_lsd[2]~1_combout $end
$var wire 1 ] disp0|WideOr6~0_combout $end
$var wire 1 ^ disp0|WideOr5~0_combout $end
$var wire 1 _ disp0|WideOr4~0_combout $end
$var wire 1 ` disp0|WideOr3~0_combout $end
$var wire 1 a disp0|WideOr2~0_combout $end
$var wire 1 b disp0|WideOr1~0_combout $end
$var wire 1 c disp0|WideOr0~0_combout $end
$var wire 1 d segundos|bcd_s_msd[0]~3_combout $end
$var wire 1 e segundos|Equal0~0_combout $end
$var wire 1 f segundos|bcd_s_msd~1_combout $end
$var wire 1 g segundos|bcd_s_msd~0_combout $end
$var wire 1 h disp1|WideOr6~0_combout $end
$var wire 1 i disp1|WideOr5~0_combout $end
$var wire 1 j disp1|WideOr4~0_combout $end
$var wire 1 k disp1|WideOr3~0_combout $end
$var wire 1 l disp1|Decoder0~0_combout $end
$var wire 1 m disp1|WideOr1~0_combout $end
$var wire 1 n disp1|WideOr0~0_combout $end
$var wire 1 o minutos|bcd_m_lsd[0]~3_combout $end
$var wire 1 p segundos|incrementa_minuto~0_combout $end
$var wire 1 q minutos|bcd_m_lsd[2]~1_combout $end
$var wire 1 r minutos|bcd_m_lsd~2_combout $end
$var wire 1 s minutos|bcd_m_lsd~0_combout $end
$var wire 1 t disp2|WideOr6~0_combout $end
$var wire 1 u disp2|WideOr5~0_combout $end
$var wire 1 v disp2|WideOr4~0_combout $end
$var wire 1 w disp2|WideOr3~0_combout $end
$var wire 1 x disp2|WideOr2~0_combout $end
$var wire 1 y disp2|WideOr1~0_combout $end
$var wire 1 z disp2|WideOr0~0_combout $end
$var wire 1 { minutos|bcd_m_msd[0]~3_combout $end
$var wire 1 | minutos|Equal0~0_combout $end
$var wire 1 } segundos|incrementa_minuto~1_combout $end
$var wire 1 ~ minutos|bcd_m_msd[0]~0_combout $end
$var wire 1 !! minutos|bcd_m_msd~1_combout $end
$var wire 1 "! minutos|bcd_m_msd~2_combout $end
$var wire 1 #! disp3|WideOr6~0_combout $end
$var wire 1 $! disp3|WideOr5~0_combout $end
$var wire 1 %! disp3|WideOr4~0_combout $end
$var wire 1 &! disp3|WideOr3~0_combout $end
$var wire 1 '! disp3|Decoder0~0_combout $end
$var wire 1 (! disp3|WideOr1~0_combout $end
$var wire 1 )! disp3|WideOr0~0_combout $end
$var wire 1 *! horas|bcd_h_lsd[0]~6_combout $end
$var wire 1 +! minutos|incrementa_hora~0_combout $end
$var wire 1 ,! minutos|incrementa_hora~1_combout $end
$var wire 1 -! horas|bcd_h_lsd~5_combout $end
$var wire 1 .! horas|Equal2~0_combout $end
$var wire 1 /! horas|bcd_h_msd[0]~2_combout $end
$var wire 1 0! horas|bcd_h_msd[1]~0_combout $end
$var wire 1 1! horas|bcd_h_msd[1]~1_combout $end
$var wire 1 2! horas|always0~0_combout $end
$var wire 1 3! horas|bcd_h_lsd[3]~2_combout $end
$var wire 1 4! horas|bcd_h_lsd~3_combout $end
$var wire 1 5! horas|Add1~0_combout $end
$var wire 1 6! horas|bcd_h_lsd~4_combout $end
$var wire 1 7! disp4|WideOr6~0_combout $end
$var wire 1 8! disp4|WideOr5~0_combout $end
$var wire 1 9! disp4|WideOr4~0_combout $end
$var wire 1 :! disp4|WideOr3~0_combout $end
$var wire 1 ;! disp4|WideOr2~0_combout $end
$var wire 1 <! disp4|WideOr1~0_combout $end
$var wire 1 =! disp4|WideOr0~0_combout $end
$var wire 1 >! disp5|Decoder0~0_combout $end
$var wire 1 ?! disp5|Decoder0~1_combout $end
$var wire 1 @! segundos|bcd_s_msd [2] $end
$var wire 1 A! segundos|bcd_s_msd [1] $end
$var wire 1 B! segundos|bcd_s_msd [0] $end
$var wire 1 C! segundos|bcd_s_lsd [3] $end
$var wire 1 D! segundos|bcd_s_lsd [2] $end
$var wire 1 E! segundos|bcd_s_lsd [1] $end
$var wire 1 F! segundos|bcd_s_lsd [0] $end
$var wire 1 G! minutos|bcd_m_msd [2] $end
$var wire 1 H! minutos|bcd_m_msd [1] $end
$var wire 1 I! minutos|bcd_m_msd [0] $end
$var wire 1 J! minutos|bcd_m_lsd [3] $end
$var wire 1 K! minutos|bcd_m_lsd [2] $end
$var wire 1 L! minutos|bcd_m_lsd [1] $end
$var wire 1 M! minutos|bcd_m_lsd [0] $end
$var wire 1 N! horas|bcd_h_msd [1] $end
$var wire 1 O! horas|bcd_h_msd [0] $end
$var wire 1 P! horas|bcd_h_lsd [3] $end
$var wire 1 Q! horas|bcd_h_lsd [2] $end
$var wire 1 R! horas|bcd_h_lsd [1] $end
$var wire 1 S! horas|bcd_h_lsd [0] $end
$upscope $end
$upscope $end
$enddefinitions $end
#0
$dumpvars
0!
0"
1)
0(
0'
0&
0%
0$
0#
10
0/
0.
0-
0,
0+
0*
17
06
05
04
03
02
01
0>
0=
1<
0;
0:
09
08
0E
0D
1C
0B
0A
1@
0?
0L
0K
0J
0I
0H
0G
0F
xM
0N
1O
xP
1Q
1R
1S
0T
0U
0V
1W
0X
0Y
0Z
0[
0\
1]
0^
0_
0`
0a
0b
0c
1d
0e
0f
1g
0h
0i
1j
0k
0l
0m
0n
1o
0p
0q
1r
0s
1t
0u
1v
0w
0x
0y
0z
1{
1|
1}
0~
0!!
0"!
1#!
0$!
0%!
0&!
0'!
1(!
0)!
1*!
0+!
0,!
0-!
0.!
0/!
00!
01!
02!
03!
04!
05!
06!
07!
08!
09!
0:!
0;!
0<!
0=!
0>!
0?!
0B!
0A!
0@!
0F!
0E!
0D!
0C!
0I!
0H!
0G!
0M!
0L!
0K!
0J!
0O!
0N!
0S!
0R!
0Q!
0P!
$end
#10000
1!
1U
1V
0M
#20000
0!
0U
0V
1M
#30000
1!
1U
1V
0M
#40000
0!
0U
0V
1M
#50000
1"
1!
1X
1U
1V
1Y
0M
1F!
1e
1_
1Z
0W
1~
1p
1J
#60000
0!
0U
0V
1M
#70000
1!
1U
1V
0M
1I!
1J!
1M!
1@!
1B!
1C!
0F!
1)!
1&!
1%!
1$!
1"!
0{
0|
0v
0t
0o
0}
0p
1m
0j
1h
0d
0e
0_
0]
1W
0~
11
14
15
16
0<
0C
1E
0J
1>
0@
1L
#80000
0!
0U
0V
1M
#90000
1!
1U
1V
0M
1F!
1c
1`
1_
1^
1[
0W
1F
1I
1J
1K
#100000
0!
0U
0V
1M
#110000
1!
1U
1V
0M
1E!
0F!
0c
1a
0`
0_
1]
1W
0F
1H
0I
0J
0L
#120000
0!
0U
0V
1M
#130000
1!
1U
1V
0M
1F!
0a
1_
1\
0[
0W
0H
1J
#140000
0!
0U
0V
1M
#150000
1!
1U
1V
0M
1D!
0E!
0F!
1c
1`
0^
1W
1F
1I
0K
#160000
0!
0U
0V
1M
#170000
1!
1U
1V
0M
1F!
0c
1b
0`
1[
0W
0F
1G
0I
#180000
0!
0U
0V
1M
#190000
1!
1U
1V
0M
1E!
0F!
0_
1W
0J
